Getting started with wavdrcast • wavdrcast
…
\[y_{t + h} - y_t = \alpha + \gamma_0^w z^w_t + \epsilon_{t + h};\]

evaluation of core inflation measure that exclude food and energy

\[x_{t + h}  = \alpha + \sum^p_{i = 0}\beta_ix_{t - i} + \sum^q_{i = 0}\gamma_i z_{t - i} + \epsilon_{t + h}.\]

In the last equation, it was assumed that the variable \(z\) are not revised, as it is almost always the case of core inflation measure that exclude food and energy. If it is, there is a function in the package that allows one to consider cases where \(z\) changes at each point in time. If \(z\) is the core inflation measure from HP filter, for example, then an evaluation of the forecast property should consider that the estimation of \(z\) changes for each out-of-sample observation. If \(z\) includes \(z^w\), as is the case of the second equation above, then for each point in time a new estimation of \(z^w\) is did automatically.

Core Inflation

In this section the forecast property of core inflation measures is evaluated. First, the wavelet core inflation is evaluated followed by the analysis of the core that exclude food and energy. Finally, an AR model is estimated and then the three models are compared. Inflation and core inflation that exclude food and energy are monthly data from 1970-01 to 2019-10 and are included in the package dataset:

tibble::as_tibble(inf)
#> # A tibble: 598 x 2
#>      cpi  core
#>    <dbl> <dbl>
#>  1 0.265 0.253
#>  2 0.529 0.505
#>  3 0.526 0.754
#>  4 0.785 0.499
#>  5 0.260 0.496
#>  6 0.518 0.741
#>  7 0.515 0.245
#>  8 0     0.244
#>  9 0.513 0.732
#> 10 0.510 0.726
#> # ... with 588 more rows
…
As an initial step, the code bellow generates dummies variables:

dummies <- tibble::tibble(
  date = seq(lubridate::ymd("1970-01-01"),
    lubridate::ymd("2019-10-01"),
    by = "months"
  ),
  month = lubridate::month(date, label = TRUE)
) %>%
  dplyr::mutate(var = 1) %>%
  tidyr::spread(month, var, fill = 0) %>%
  dplyr::select(-date, -dplyr::ends_with("dez"))

dummies
#> # A tibble: 598 x 11
#>      jan   fev   mar   abr   mai   jun   jul   ago   set   out   nov
#>    <dbl> <dbl> <dbl> <dbl> <dbl> <dbl> <dbl> <dbl> <dbl> <dbl> <dbl>
#>  1     1     0     0     0     0     0     0     0     0     0     0
#>  2     0     1     0     0     0     0     0     0     0     0     0
#>  3     0     0     1     0     0     0     0     0     0     0     0
#>  4     0     0     0     1     0     0     0     0     0     0     0
#>  5     0     0     0     0     1     0     0     0     0     0     0
#>  6     0     0     0     0     0     1     0     0     0     0     0
#>  7     0     0     0     0     0     0     1     0     0     0     0
#>  8     0     0     0     0     0     0     0     1     0     0     0
#>  9     0     0     0     0     0     0     0     0     1     0     0
#> 10     0     0     0     0     0     0     0     0     0     1     0
#> # ... with 588 more rows
…
This function constructed 25 estimatives of wavelet potencial gdp and the last part of the code above transformed them in outupt gap. The first column (lgdp24) of the tibble is the first out-of-sample data and (lgdp0) is the wavelet estimation using all data (the last out-of sample data).

For function compatibility, inflation data must have the same number of rows and columns of vin_wavgap object. To do that, the columns of quarterly cpi (infqtr) is repetead:

#> # A tibble: 282 x 25
#>    infqtr24 infqtr23 infqtr22 infqtr21 infqtr20 infqtr19 infqtr18 infqtr17
#>       <dbl>    <dbl>    <dbl>    <dbl>    <dbl>    <dbl>    <dbl>    <dbl>
#>  1   -1.24    -1.24    -1.24    -1.24    -1.24    -1.24    -1.24    -1.24 
#>  2    0.420    0.420    0.420    0.420    0.420    0.420    0.420    0.420
#>  3    0        0        0        0        0        0        0        0    
#>  4   -1.26    -1.26    -1.26    -1.26    -1.26    -1.26    -1.26    -1.26 
#>  5    0        0        0        0        0        0        0        0    
#>  6    0.847    0.847    0.847    0.847    0.847    0.847    0.847    0.847
#>  7    2.52     2.52     2.52     2.52     2.52     2.52     2.52     2.52 
#>  8    2.46     2.46     2.46     2.46     2.46     2.46     2.46     2.46 
#>  9    3.2      3.2      3.2      3.2      3.2      3.2      3.2      3.2  
#> 10    0.388    0.388    0.388    0.388    0.388    0.388    0.388    0.388
#> # ... with 272 more rows, and 17 more variables: infqtr16 <dbl>,
#> #   infqtr15 <dbl>, infqtr14 <dbl>, infqtr13 <dbl>, infqtr12 <dbl>,
#> #   infqtr11 <dbl>, infqtr10 <dbl>, infqtr9 <dbl>, infqtr8 <dbl>,
#> #   infqtr7 <dbl>, infqtr6 <dbl>, infqtr5 <dbl>, infqtr4 <dbl>,
#> #   infqtr3 <dbl>, infqtr2 <dbl>, infqtr1 <dbl>, infqtr <dbl>
…
This function can be used to generate HP vintages:

vin_hpgap <- hpvint(lgdp, 24,
  freq = 1600, type = "lambda"
) %>%
  dplyr::mutate_all(~ `-`(lgdp, .))

vin_hpgap
#> # A tibble: 282 x 25
#>    lgdp_hp24 lgdp_hp23 lgdp_hp22 lgdp_hp21 lgdp_hp20 lgdp_hp19 lgdp_hp18
#>        <dbl>     <dbl>     <dbl>     <dbl>     <dbl>     <dbl>     <dbl>
#>  1  -0.00158  -0.00158  -0.00158  -0.00158  -0.00158  -0.00158  -0.00158
#>  2  -0.0201   -0.0201   -0.0201   -0.0201   -0.0201   -0.0201   -0.0201 
#>  3  -0.0250   -0.0250   -0.0250   -0.0250   -0.0250   -0.0250   -0.0250 
#>  4  -0.0485   -0.0485   -0.0485   -0.0485   -0.0485   -0.0485   -0.0485 
#>  5  -0.0250   -0.0250   -0.0250   -0.0250   -0.0250   -0.0250   -0.0250 
#>  6  -0.00996  -0.00996  -0.00996  -0.00996  -0.00996  -0.00996  -0.00996
#>  7   0.0132    0.0132    0.0132    0.0132    0.0132    0.0132    0.0132 
#>  8   0.0176    0.0176    0.0176    0.0176    0.0176    0.0176    0.0176 
#>  9   0.0169    0.0169    0.0169    0.0169    0.0169    0.0169    0.0169 
#> 10   0.0203    0.0203    0.0203    0.0203    0.0203    0.0203    0.0203 
#> # ... with 272 more rows, and 18 more variables: lgdp_hp17 <dbl>,
#> #   lgdp_hp16 <dbl>, lgdp_hp15 <dbl>, lgdp_hp14 <dbl>, lgdp_hp13 <dbl>,
#> #   lgdp_hp12 <dbl>, lgdp_hp11 <dbl>, lgdp_hp10 <dbl>, lgdp_hp9 <dbl>,
#> #   lgdp_hp8 <dbl>, lgdp_hp7 <dbl>, lgdp_hp6 <dbl>, lgdp_hp5 <dbl>,
#> #   lgdp_hp4 <dbl>, lgdp_hp3 <dbl>, lgdp_hp2 <dbl>, lgdp_hp1 <dbl>,
#> #   lgdp_hp0 <dbl>
…
